TimePenalties: 10  Sheet_Penalties: 16  Team_Game_Penalty: 0 Total_Penalty: 26
Week,Time,Sheet,Team1,Team2
1,1,1,18,20
1,1,2,8,11
1,1,3,4,9
1,1,4,7,10
1,1,5,5,6
1,2,1,19,27
1,2,2,21,26
1,2,3,2,12
1,2,4,23,29
1,2,5,15,28
2,1,1,20,27
2,1,2,7,12
2,1,3,8,9
2,1,4,22,24
2,1,5,17,21
2,2,1,3,11
2,2,2,5,10
2,2,3,6,13
2,2,4,1,2
2,2,5,16,25
3,1,1,19,29
3,1,2,18,27
3,1,3,15,16
3,1,4,22,28
3,1,5,20,25
3,2,1,5,8
3,2,2,12,13
3,2,3,3,7
3,2,4,1,9
3,2,5,17,23
4,1,1,5,7
4,1,2,20,29
4,1,3,19,24
4,1,4,15,18
4,1,5,6,8
4,2,1,22,26
4,2,2,16,17
4,2,3,21,25
5,1,1,16,28
5,1,2,5,14
5,1,3,2,13
5,1,4,23,24
5,1,5,15,29
5,2,1,6,12
5,2,2,7,9
6,1,1,1,12
6,1,2,19,22
6,1,3,2,14
6,1,4,21,28
6,1,5,20,24
6,2,1,5,13
6,2,2,15,27
6,2,3,6,11
6,2,4,16,26
6,2,5,4,7
7,1,1,22,25
7,1,2,7,14
7,1,3,1,5
7,1,4,15,26
7,1,5,4,11
7,2,1,9,10
7,2,2,24,28
7,2,3,18,19
8,1,1,3,13
8,1,2,16,22
8,1,3,9,14
8,1,4,19,23
8,1,5,2,4
8,2,1,10,12
8,2,2,15,17
9,1,1,23,25
9,1,2,9,11
9,1,3,3,12
9,1,4,17,18
9,1,5,26,28
9,2,1,8,14
9,2,2,4,13
9,2,3,21,29
9,2,4,2,6
9,2,5,16,19
10,1,1,18,22
10,1,2,20,23
10,1,3,10,13
10,1,4,21,27
10,1,5,1,3
10,2,1,4,14
11,1,1,1,11
11,1,2,3,14
11,1,3,21,22
11,1,4,25,27
11,1,5,17,29
11,2,1,20,28
11,2,2,8,10
11,2,3,24,26
12,1,1,4,6
12,1,2,2,3
12,1,3,1,8
12,1,4,17,26
12,1,5,10,11
12,2,1,18,25
12,2,2,24,29
12,2,3,23,27

Team,Opponent,Week,Time,Sheet
1,2,2,2,4
1,9,3,2,4
1,12,6,1,1
1,5,7,1,3
1,3,10,1,5
1,11,11,1,1
1,8,12,1,3
2,12,1,2,3
2,1,2,2,4
2,13,5,1,3
2,14,6,1,3
2,4,8,1,5
2,6,9,2,4
2,3,12,1,2
3,11,2,2,1
3,7,3,2,3
3,13,8,1,1
3,12,9,1,3
3,1,10,1,5
3,14,11,1,2
3,2,12,1,2
4,9,1,1,3
4,7,6,2,5
4,11,7,1,5
4,2,8,1,5
4,13,9,2,2
4,14,10,2,1
4,6,12,1,1
5,6,1,1,5
5,10,2,2,2
5,8,3,2,1
5,7,4,1,1
5,14,5,1,2
5,13,6,2,1
5,1,7,1,3
6,5,1,1,5
6,13,2,2,3
6,8,4,1,5
6,12,5,2,1
6,11,6,2,3
6,2,9,2,4
6,4,12,1,1
7,10,1,1,4
7,12,2,1,2
7,3,3,2,3
7,5,4,1,1
7,9,5,2,2
7,4,6,2,5
7,14,7,1,2
8,11,1,1,2
8,9,2,1,3
8,5,3,2,1
8,6,4,1,5
8,14,9,2,1
8,10,11,2,2
8,1,12,1,3
9,4,1,1,3
9,8,2,1,3
9,1,3,2,4
9,7,5,2,2
9,10,7,2,1
9,14,8,1,3
9,11,9,1,2
10,7,1,1,4
10,5,2,2,2
10,9,7,2,1
10,12,8,2,1
10,13,10,1,3
10,8,11,2,2
10,11,12,1,5
11,8,1,1,2
11,3,2,2,1
11,6,6,2,3
11,4,7,1,5
11,9,9,1,2
11,1,11,1,1
11,10,12,1,5
12,2,1,2,3
12,7,2,1,2
12,13,3,2,2
12,6,5,2,1
12,1,6,1,1
12,10,8,2,1
12,3,9,1,3
13,6,2,2,3
13,12,3,2,2
13,2,5,1,3
13,5,6,2,1
13,3,8,1,1
13,4,9,2,2
13,10,10,1,3
14,5,5,1,2
14,2,6,1,3
14,7,7,1,2
14,9,8,1,3
14,8,9,2,1
14,4,10,2,1
14,3,11,1,2
15,28,1,2,5
15,16,3,1,3
15,18,4,1,4
15,29,5,1,5
15,27,6,2,2
15,26,7,1,4
15,17,8,2,2
16,25,2,2,5
16,15,3,1,3
16,17,4,2,2
16,28,5,1,1
16,26,6,2,4
16,22,8,1,2
16,19,9,2,5
17,21,2,1,5
17,23,3,2,5
17,16,4,2,2
17,15,8,2,2
17,18,9,1,4
17,29,11,1,5
17,26,12,1,4
18,20,1,1,1
18,27,3,1,2
18,15,4,1,4
18,19,7,2,3
18,17,9,1,4
18,22,10,1,1
18,25,12,2,1
19,27,1,2,1
19,29,3,1,1
19,24,4,1,3
19,22,6,1,2
19,18,7,2,3
19,23,8,1,4
19,16,9,2,5
20,18,1,1,1
20,27,2,1,1
20,25,3,1,5
20,29,4,1,2
20,24,6,1,5
20,23,10,1,2
20,28,11,2,1
21,26,1,2,2
21,17,2,1,5
21,25,4,2,3
21,28,6,1,4
21,29,9,2,3
21,27,10,1,4
21,22,11,1,3
22,24,2,1,4
22,28,3,1,4
22,26,4,2,1
22,19,6,1,2
22,25,7,1,1
22,16,8,1,2
22,18,10,1,1
22,21,11,1,3
23,29,1,2,4
23,17,3,2,5
23,24,5,1,4
23,19,8,1,4
23,25,9,1,1
23,20,10,1,2
23,27,12,2,3
24,22,2,1,4
24,19,4,1,3
24,23,5,1,4
24,20,6,1,5
24,28,7,2,2
24,26,11,2,3
24,29,12,2,2
25,16,2,2,5
25,20,3,1,5
25,21,4,2,3
25,22,7,1,1
25,23,9,1,1
25,27,11,1,4
25,18,12,2,1
26,21,1,2,2
26,22,4,2,1
26,16,6,2,4
26,15,7,1,4
26,28,9,1,5
26,24,11,2,3
26,17,12,1,4
27,19,1,2,1
27,20,2,1,1
27,18,3,1,2
27,15,6,2,2
27,21,10,1,4
27,25,11,1,4
27,23,12,2,3
28,15,1,2,5
28,22,3,1,4
28,16,5,1,1
28,21,6,1,4
28,24,7,2,2
28,26,9,1,5
28,20,11,2,1
29,23,1,2,4
29,19,3,1,1
29,20,4,1,2
29,15,5,1,5
29,21,9,2,3
29,17,11,1,5
29,24,12,2,2

Team,Time_Penalties,Sheet_Penalties
1,1,0
2,0,1
3,1,0
4,0,1
5,0,1
6,0,0
7,0,1
8,0,0
9,0,1
10,0,0
11,1,0
12,0,1
13,0,1
14,1,1
15,0,0
16,0,0
17,0,1
18,1,1
19,0,0
20,2,1
21,0,1
22,3,1
23,0,1
24,0,0
25,0,1
26,0,1
27,0,0
28,0,0
29,0,0
